Lab 10: Biodiversity Databases and Community Phylogenetics
…
Now let’s download occurence data for a taxon. This will take a minute or so:

a_californica <- occ_search(scientificName="Asterella californica", limit=500)

We only downloaded the first 500 records, but how many total were found? 540

a_californica

## Records found [540] 
## Records returned [500] 
## No. unique hierarchies [1] 
## No. media records [500] 
## No. facets [0] 
## Args [limit=500, offset=0, scientificName=Asterella californica, fields=all] 
## # A tibble: 500 x 142
##    key   scientificName decimalLatitude decimalLongitude issues datasetKey
##    <chr> <chr>                    <dbl>            <dbl> <chr>  <chr>     
##  1 2543… Asterella cal…            32.8            -117. cdrou… 50c9509d-…
##  2 2543… Asterella cal…            32.7            -117. cdrou… 50c9509d-…
##  3 2557… Asterella cal…            37.4            -122. cdrou… 50c9509d-…
##  4 2557… Asterella cal…            37.9            -122. cdrou… 50c9509d-…
##  5 2557… Asterella cal…            37.9            -122. cdrou… 50c9509d-…
##  6 2563… Asterella cal…            32.9            -117. gass84 50c9509d-…
##  7 2563… Asterella cal…            33.1            -117. cdrou… 50c9509d-…
##  8 2563… Asterella cal…            33.6            -118. cdrou… 50c9509d-…
##  9 2563… Asterella cal…            33.7            -118. cdrou… 50c9509d-…
## 10 2563… Asterella cal…            32.8            -117. cdrou… 50c9509d-…
## # … with 490 more rows, and 136 more variables: publishingOrgKey <chr>,
## #   installationKey <chr>, publishingCountry <chr>, protocol <chr>,
## #   lastCrawled <chr>, lastParsed <chr>, crawlId <int>, extensions <chr>,
## #   basisOfRecord <chr>, taxonKey <int>, kingdomKey <int>, phylumKey <int>,
## #   classKey <int>, orderKey <int>, familyKey <int>, genusKey <int>,
## #   speciesKey <int>, acceptedTaxonKey <int>, acceptedScientificName <chr>,
## #   kingdom <chr>, phylum <chr>, order <chr>, family <chr>, genus <chr>,
## #   species <chr>, genericName <chr>, specificEpithet <chr>, taxonRank <chr>,
## #   taxonomicStatus <chr>, dateIdentified <chr>,
…
Download occurence data for Sciurus carolinensis.

s_carolinensis <- occ_search(scientificName="Sciurus carolinensis", limit=500)

We only downloaded the first 500 records, but how many total were found? 162239

s_carolinensis

## Records found [162239] 
## Records returned [500] 
## No. unique hierarchies [1] 
## No. media records [500] 
## No. facets [0] 
## Args [limit=500, offset=0, scientificName=Sciurus carolinensis, fields=all] 
## # A tibble: 500 x 80
##    key   scientificName decimalLatitude decimalLongitude issues datasetKey
##    <chr> <chr>                    <dbl>            <dbl> <chr>  <chr>     
##  1 2542… Sciurus carol…            40.8            -74.0 cdrou… 50c9509d-…
##  2 2542… Sciurus carol…            44.3            -78.3 cdrou… 50c9509d-…
##  3 2542… Sciurus carol…            39.0            -77.2 cdrou… 50c9509d-…
##  4 2542… Sciurus carol…            28.3            -81.4 cdrou… 50c9509d-…
##  5 2542… Sciurus carol…            38.8            -77.1 cdrou… 50c9509d-…
##  6 2542… Sciurus carol…            43.1            -87.9 cdrou… 50c9509d-…
##  7 2542… Sciurus carol…            39.0            -77.2 cdrou… 50c9509d-…
##  8 2542… Sciurus carol…            31.3            -94.7 gass84 50c9509d-…
##  9 2542… Sciurus carol…            48.8            -93.7 cdrou… 50c9509d-…
## 10 2543… Sciurus carol…            43.1            -87.9 cdrou… 50c9509d-…
## # … with 490 more rows, and 74 more variables: publishingOrgKey <chr>,
## #   installationKey <chr>, publishingCountry <chr>, protocol <chr>,
## #   lastCrawled <chr>, lastParsed <chr>, crawlId <int>, extensions <chr>,
## #   basisOfRecord <chr>, taxonKey <int>, kingdomKey <int>, phylumKey <int>,
## #   classKey <int>, orderKey <int>, familyKey <int>, genusKey <int>,
## #   speciesKey <int>, acceptedTaxonKey <int>, acceptedScientificName <chr>,
## #   kingdom <chr>, phylum <chr>, order <chr>, family <chr>, genus <chr>,
## #   species <chr>, genericName <chr>, specificEpithet <chr>, taxonRank <chr>,
## #   taxonomicStatus <chr>, dateIdentified <chr>,
…
